%!PS-Adobe-3.0 EPSF-3.0
%%Creator: cairo 1.16.0 (https://cairographics.org)
%%CreationDate: Wed Aug 19 23:18:36 2020
%%Pages: 1
%%DocumentData: Clean7Bit
%%LanguageLevel: 2
%%BoundingBox: 0 0 396 360
%%EndComments
%%BeginProlog
50 dict begin
/q { gsave } bind def
/Q { grestore } bind def
/cm { 6 array astore concat } bind def
/w { setlinewidth } bind def
/J { setlinecap } bind def
/j { setlinejoin } bind def
/M { setmiterlimit } bind def
/d { setdash } bind def
/m { moveto } bind def
/l { lineto } bind def
/c { curveto } bind def
/h { closepath } bind def
/re { exch dup neg 3 1 roll 5 3 roll moveto 0 rlineto
      0 exch rlineto 0 rlineto closepath } bind def
/S { stroke } bind def
/f { fill } bind def
/f* { eofill } bind def
/n { newpath } bind def
/W { clip } bind def
/W* { eoclip } bind def
/BT { } bind def
/ET { } bind def
/BDC { mark 3 1 roll /BDC pdfmark } bind def
/EMC { mark /EMC pdfmark } bind def
/cairo_store_point { /cairo_point_y exch def /cairo_point_x exch def } def
/Tj { show currentpoint cairo_store_point } bind def
/TJ {
  {
    dup
    type /stringtype eq
    { show } { -0.001 mul 0 cairo_font_matrix dtransform rmoveto } ifelse
  } forall
  currentpoint cairo_store_point
} bind def
/cairo_selectfont { cairo_font_matrix aload pop pop pop 0 0 6 array astore
    cairo_font exch selectfont cairo_point_x cairo_point_y moveto } bind def
/Tf { pop /cairo_font exch def /cairo_font_matrix where
      { pop cairo_selectfont } if } bind def
/Td { matrix translate cairo_font_matrix matrix concatmatrix dup
      /cairo_font_matrix exch def dup 4 get exch 5 get cairo_store_point
      /cairo_font where { pop cairo_selectfont } if } bind def
/Tm { 2 copy 8 2 roll 6 array astore /cairo_font_matrix exch def
      cairo_store_point /cairo_font where { pop cairo_selectfont } if } bind def
/g { setgray } bind def
/rg { setrgbcolor } bind def
/d1 { setcachedevice } bind def
/cairo_data_source {
  CairoDataIndex CairoData length lt
    { CairoData CairoDataIndex get /CairoDataIndex CairoDataIndex 1 add def }
    { () } ifelse
} def
/cairo_flush_ascii85_file { cairo_ascii85_file status { cairo_ascii85_file flushfile } if } def
/cairo_image { image cairo_flush_ascii85_file } def
/cairo_imagemask { imagemask cairo_flush_ascii85_file } def
%%EndProlog
%%BeginSetup
%%EndSetup
%%Page: 1 1
%%BeginPageSetup
%%PageBoundingBox: 0 0 396 360
%%EndPageSetup
q 0 0 396 360 rectclip
1 0 0 -1 0 360 cm q
0.384314 0.364706 0.317647 rg
133.629 72 m 133.629 48 l 120.055 48 l 118.988 43.855 117.402 39.926 115.332
 36.293 c 127.629 24 l 109.629 6 l 97.332 18.293 l 93.703 16.223 89.773 
14.641 85.629 13.57 c 85.629 0 l 61.629 0 l 61.629 13.57 l 57.48 14.641 
53.551 16.223 49.922 18.293 c 37.629 6 l 19.629 24 l 31.922 36.293 l 29.852
 39.926 28.266 43.855 27.199 48 c 13.629 48 l 13.629 72 l 27.199 72 l 28.266
 76.145 29.852 80.074 31.922 83.707 c 19.629 96 l 37.629 114 l 49.922 101.707
 l 53.551 103.777 57.48 105.359 61.629 106.43 c 61.629 120 l 85.629 120 
l 85.629 106.43 l 89.773 105.359 93.703 103.777 97.332 101.707 c 109.629
 114 l 127.629 96 l 115.332 83.707 l 117.402 80.074 118.988 76.145 120.055
 72 c h
133.629 72 m f
373.629 312 m 373.629 288 l 360.055 288 l 358.988 283.855 357.402 279.926
 355.332 276.293 c 367.629 264 l 349.629 246 l 337.332 258.293 l 333.703
 256.223 329.773 254.641 325.629 253.57 c 325.629 240 l 301.629 240 l 301.629
 253.57 l 297.48 254.641 293.551 256.223 289.922 258.293 c 277.629 246 l
 259.629 264 l 271.922 276.293 l 269.852 279.926 268.266 283.855 267.199
 288 c 253.629 288 l 253.629 312 l 267.199 312 l 268.266 316.145 269.852
 320.074 271.922 323.707 c 259.629 336 l 277.629 354 l 289.922 341.707 l
 293.551 343.777 297.48 345.359 301.629 346.43 c 301.629 360 l 325.629 360
 l 325.629 346.43 l 329.773 345.359 333.703 343.777 337.332 341.707 c 349.629
 354 l 367.629 336 l 355.332 323.707 l 357.402 320.074 358.988 316.145 360.055
 312 c h
373.629 312 m f
1 g
97.629 60 m 97.629 73.254 86.883 84 73.629 84 c 60.371 84 49.629 73.254
 49.629 60 c 49.629 46.746 60.371 36 73.629 36 c 86.883 36 97.629 46.746
 97.629 60 c h
97.629 60 m f
337.629 300 m 337.629 313.254 326.883 324 313.629 324 c 300.371 324 289.629
 313.254 289.629 300 c 289.629 286.746 300.371 276 313.629 276 c 326.883
 276 337.629 286.746 337.629 300 c h
337.629 300 m f
0.384314 0.364706 0.317647 rg
205.629 30 m 184.109 30 l 197.867 16.242 l 189.387 7.758 l 165.387 31.758
 l 163.039 34.105 163.039 37.895 165.387 40.242 c 189.387 64.242 l 197.867
 55.758 l 184.109 42 l 205.629 42 l 275.102 42 331.629 98.527 331.629 168
 c 343.629 168 l 343.629 91.902 281.727 30 205.629 30 c h
205.629 30 m f
197.867 295.758 m 189.387 304.242 l 203.145 318 l 181.629 318 l 112.152
 318 55.629 261.473 55.629 192 c 43.629 192 l 43.629 268.098 105.527 330
 181.629 330 c 203.145 330 l 189.387 343.758 l 197.867 352.242 l 221.867
 328.242 l 224.215 325.895 224.215 322.105 221.867 319.758 c h
197.867 295.758 m f
1 0.756863 0.027451 rg
118.75 204.254 m 118.75 217.754 112.625 230.254 102.062 238.629 c 97.75
 242.004 94.938 246.441 94.062 251.191 c 93.75 251.129 l 56.25 251.129 l
 55.812 251.191 l 54.938 246.254 52.375 241.941 48.688 239.191 c 35.062 
228.879 28.688 212.004 32.188 195.004 c 35.625 178.441 49.062 164.941 65.625
 161.504 c 78.812 158.691 92.312 161.941 102.562 170.254 c 112.875 178.629
 118.75 191.004 118.75 204.254 c h
118.75 204.254 m f
0.870588 0.658824 0.0235294 rg
74.992 160.512 m 71.887 160.512 68.75 160.836 65.625 161.504 c 49.062 164.941
 35.625 178.441 32.188 195.004 c 28.688 212.004 35.062 228.879 48.688 239.191
 c 52.375 241.941 54.938 246.254 55.812 251.191 c 56.25 251.129 l 75 251.129
 l 75 160.512 l 74.992 160.512 74.992 160.512 74.992 160.512 c h
74.992 160.512 m f
1 0.756863 0.027451 rg
116.07 167.871 m 114.867 167.871 113.668 167.418 112.758 166.496 c 110.926
 164.668 110.926 161.699 112.758 159.867 c 121.406 151.215 l 123.238 149.387
 126.207 149.387 128.039 151.215 c 129.867 153.047 129.867 156.016 128.039
 157.848 c 119.387 166.496 l 118.469 167.41 117.27 167.871 116.07 167.871
 c h
116.07 167.871 m f
145.312 208.941 m 133.082 208.941 l 130.492 208.941 128.395 206.84 128.395
 204.254 c 128.395 201.668 130.492 199.566 133.082 199.566 c 145.312 199.566
 l 147.898 199.566 150 201.668 150 204.254 c 150 206.84 147.898 208.941 
145.312 208.941 c h
145.312 208.941 m f
124.719 258.66 m 123.52 258.66 122.32 258.203 121.406 257.285 c 112.758
 248.637 l 110.926 246.805 110.926 243.836 112.758 242.004 c 114.586 240.172
 117.555 240.172 119.387 242.004 c 128.039 250.652 l 129.867 252.484 129.867
 255.453 128.039 257.285 c 127.117 258.203 125.918 258.66 124.719 258.66
 c h
124.719 258.66 m f
0.376471 0.490196 0.545098 rg
94.062 251.191 m 93.875 252.254 93.75 253.316 93.75 254.441 c 93.75 268.316
 l 93.75 274.316 88.812 279.254 82.812 279.254 c 67.188 279.254 l 61.938
 279.254 56.25 275.254 56.25 266.504 c 56.25 255.441 l 56.25 254.004 56.125
 252.566 55.812 251.191 c 56.25 251.129 l 93.75 251.129 l h
94.062 251.191 m f
0.329412 0.427451 0.47451 rg
75 251.129 m 56.25 251.129 l 55.812 251.191 l 56.125 252.566 56.25 254.004
 56.25 255.441 c 56.25 266.504 l 56.25 275.254 61.938 279.254 67.188 279.254
 c 75 279.254 l h
75 251.129 m f
1 0.756863 0.027451 rg
75 150.859 m 72.414 150.859 70.312 148.762 70.312 146.172 c 70.312 133.941
 l 70.312 131.355 72.414 129.254 75 129.254 c 77.586 129.254 79.688 131.355
 79.688 133.941 c 79.688 146.172 l 79.688 148.762 77.586 150.859 75 150.859
 c h
75 150.859 m f
0.870588 0.658824 0.0235294 rg
75 129.254 m 72.414 129.254 70.312 131.355 70.312 133.941 c 70.312 146.172
 l 70.312 148.762 72.414 150.859 75 150.859 c h
75 129.254 m f
1 0.756863 0.027451 rg
33.93 167.871 m 32.73 167.871 31.531 167.418 30.617 166.496 c 21.969 157.848
 l 20.137 156.016 20.137 153.047 21.969 151.215 c 23.801 149.387 26.77 149.387
 28.602 151.215 c 37.25 159.867 l 39.082 161.699 39.082 164.668 37.25 166.496
 c 36.324 167.41 35.133 167.871 33.93 167.871 c h
33.93 167.871 m f
0.870588 0.658824 0.0235294 rg
21.969 151.223 m 20.137 153.055 20.137 156.023 21.969 157.855 c 30.617 
166.504 l 31.539 167.418 32.73 167.879 33.93 167.879 c 35.133 167.879 36.332
 167.422 37.242 166.504 c h
21.969 151.223 m f
1 0.756863 0.027451 rg
16.918 208.941 m 4.688 208.941 l 2.102 208.941 0 206.84 0 204.254 c 0 201.668
 2.102 199.566 4.688 199.566 c 16.918 199.566 l 19.508 199.566 21.605 201.668
 21.605 204.254 c 21.605 206.84 19.508 208.941 16.918 208.941 c h
16.918 208.941 m f
25.281 258.66 m 24.082 258.66 22.883 258.203 21.969 257.285 c 20.137 255.453
 20.137 252.484 21.969 250.652 c 30.617 242.004 l 32.449 240.172 35.418 
240.172 37.25 242.004 c 39.082 243.836 39.082 246.805 37.25 248.637 c 28.602
 257.285 l 27.68 258.203 26.48 258.66 25.281 258.66 c h
25.281 258.66 m f
0.870588 0.658824 0.0235294 rg
37.242 242.012 m 21.969 257.285 l 22.883 258.199 24.082 258.66 25.281 258.66
 c 26.48 258.66 27.68 258.203 28.594 257.285 c 37.242 248.637 l 39.074 246.809
 39.074 243.84 37.242 242.012 c h
37.242 242.012 m f
1 0.835294 0.309804 rg
98.438 207.379 m 95.852 207.379 93.75 205.277 93.75 202.691 c 93.75 193.211
 86.043 185.504 76.562 185.504 c 73.977 185.504 71.875 183.402 71.875 180.816
 c 71.875 178.23 73.977 176.129 76.562 176.129 c 91.207 176.129 103.125 
188.047 103.125 202.691 c 103.125 205.277 101.023 207.379 98.438 207.379
 c h
98.438 207.379 m f
0.870588 0.72549 0.270588 rg
73.352 180.793 m 72.867 180.793 72.375 180.797 71.875 180.816 c 71.875 
183.406 73.977 185.504 76.562 185.504 c 86.043 185.504 93.75 193.211 93.75
 202.691 c 93.75 205.281 95.852 207.379 98.438 207.379 c 101.023 207.379
 101.906 180.793 73.352 180.793 c h
73.352 180.793 m f
1 0.815686 0.392157 rg
307.531 163.906 m 294.91 163.906 l 289.609 163.906 284.363 162.141 280.141
 158.938 c 263.617 146.398 l 255.93 140.566 252.93 130.539 256.145 121.441
 c 259.223 112.746 267.484 106.832 276.707 106.723 c 285.715 106.617 290.836
 106.902 291.051 106.914 c 290.484 116.832 l 290.438 116.828 285.453 116.555
 276.824 116.656 c 271.75 116.719 267.203 119.973 265.512 124.754 c 263.742
 129.758 265.391 135.277 269.621 138.488 c 286.145 151.023 l 288.652 152.926
 291.766 153.973 294.91 153.973 c 307.531 153.973 l h
307.531 163.906 m f
0.92549 0.745098 0.419608 rg
280.141 153.703 m 263.617 141.164 l 258.719 137.449 255.727 132.027 255.031
 126.227 c 254.113 133.887 257.262 141.578 263.617 146.398 c 280.141 158.938
 l 284.363 162.141 289.609 163.906 294.91 163.906 c 307.531 163.906 l 307.531
 158.676 l 294.91 158.676 l 289.609 158.676 284.363 156.91 280.141 153.703
 c h
280.141 153.703 m f
1 0.815686 0.392157 rg
343.32 163.906 m 355.938 163.906 l 361.238 163.906 366.484 162.141 370.707
 158.938 c 387.23 146.398 l 394.918 140.566 397.922 130.539 394.703 121.441
 c 391.629 112.746 383.367 106.832 374.145 106.723 c 365.133 106.617 360.012
 106.902 359.801 106.914 c 360.363 116.832 l 360.414 116.828 365.395 116.555
 374.027 116.656 c 379.102 116.719 383.645 119.973 385.336 124.754 c 387.109
 129.758 385.457 135.277 381.227 138.488 c 364.703 151.023 l 362.199 152.926
 359.086 153.973 355.938 153.973 c 343.32 153.973 l h
343.32 163.906 m f
0.92549 0.745098 0.419608 rg
394.703 121.441 m 393.262 117.371 390.688 113.91 387.406 111.371 c 388.824
 113.195 389.965 115.254 390.762 117.5 c 393.977 126.598 390.977 136.625
 383.289 142.457 c 366.766 154.996 l 362.543 158.199 357.297 159.965 351.996
 159.965 c 343.316 159.965 l 343.316 163.906 l 355.938 163.906 l 361.238
 163.906 366.484 162.141 370.707 158.938 c 387.23 146.398 l 394.918 140.566
 397.922 130.539 394.703 121.441 c h
394.703 121.441 m f
1 0.815686 0.392157 rg
341.512 200.293 m 335.637 195.836 l 333.109 193.926 331.629 190.938 331.629
 187.77 c 331.629 168 l 318.316 168 l 318.316 187.77 l 318.316 190.938 316.836
 193.926 314.309 195.836 c 308.434 200.293 l 306.602 201.68 307.582 204.602
 309.879 204.602 c 340.062 204.602 l 342.363 204.602 343.344 201.68 341.512
 200.293 c h
341.512 200.293 m f
0.92549 0.745098 0.419608 rg
341.512 200.293 m 335.637 195.836 l 333.109 193.926 331.629 190.938 331.629
 187.77 c 331.629 168 l 324.73 168 l 324.73 187.77 l 324.73 190.938 326.211
 193.926 328.738 195.836 c 334.613 200.293 l 336.445 201.68 335.465 204.602
 333.168 204.602 c 340.062 204.602 l 342.363 204.602 343.344 201.68 341.512
 200.293 c h
341.512 200.293 m f
1 0.878431 0.490196 rg
362.75 92.273 m 288.098 92.273 l 286.668 92.273 285.508 93.434 285.508 
94.863 c 285.508 121.594 l 285.508 133.039 288.695 144.258 294.711 153.996
 c 301.605 165.148 l 312.41 182.633 337.793 182.75 348.762 165.371 c 355.828
 154.172 l 362.043 144.328 365.34 132.922 365.34 121.281 c 365.34 94.863
 l 365.34 93.434 364.18 92.273 362.75 92.273 c h
362.75 92.273 m f
1 0.815686 0.392157 rg
362.75 92.273 m 350.785 92.273 l 350.785 106.727 l 350.785 118.367 347.488
 129.773 341.273 139.617 c 334.207 150.816 l 326.383 163.215 311.223 166.703
 299.254 161.34 c 301.605 165.148 l 312.41 182.633 337.793 182.75 348.762
 165.371 c 355.828 154.172 l 362.043 144.328 365.34 132.922 365.34 121.281
 c 365.34 94.863 l 365.34 93.434 364.18 92.273 362.75 92.273 c h
362.75 92.273 m f
0.92549 0.745098 0.419608 rg
341.621 130.07 m 341.621 139.398 334.059 146.961 324.73 146.961 c 315.398
 146.961 307.836 139.398 307.836 130.07 c 307.836 120.742 315.398 113.176
 324.73 113.176 c 334.059 113.176 341.621 120.742 341.621 130.07 c h
341.621 130.07 m f
0.917647 0.694118 0.301961 rg
331.02 114.391 m 331.797 116.336 332.234 118.457 332.234 120.68 c 332.234
 130.012 324.672 137.574 315.34 137.574 c 313.117 137.574 310.996 137.141
 309.051 136.359 c 311.547 142.574 317.625 146.961 324.73 146.961 c 334.059
 146.961 341.621 139.398 341.621 130.07 c 341.621 122.965 337.23 116.887
 331.02 114.391 c h
331.02 114.391 m f
1 0.878431 0.490196 rg
325.961 122.559 m 327.73 126.141 l 327.891 126.465 328.203 126.691 328.562
 126.742 c 332.516 127.32 l 333.422 127.449 333.781 128.562 333.129 129.199
 c 330.266 131.988 l 330.004 132.242 329.887 132.609 329.949 132.965 c 330.625
 136.906 l 330.777 137.805 329.832 138.492 329.023 138.066 c 325.488 136.207
 l 325.164 136.039 324.781 136.039 324.461 136.207 c 320.922 138.066 l 320.113
 138.492 319.168 137.805 319.32 136.906 c 319.996 132.965 l 320.059 132.609
 319.941 132.242 319.68 131.988 c 316.82 129.199 l 316.164 128.562 316.523
 127.449 317.43 127.32 c 321.383 126.742 l 321.742 126.691 322.055 126.465
 322.215 126.141 c 323.984 122.559 l 324.387 121.738 325.559 121.738 325.961
 122.559 c h
325.961 122.559 m f
1 0.815686 0.392157 rg
333.129 129.199 m 333.781 128.562 333.422 127.449 332.516 127.32 c 331.074
 127.109 l 327.23 130.855 l 326.848 131.23 326.672 131.77 326.762 132.301
 c 327.625 137.332 l 329.023 138.066 l 329.832 138.492 330.777 137.805 330.625
 136.906 c 329.949 132.965 l 329.887 132.609 330.004 132.242 330.266 131.988
 c h
333.129 129.199 m f
0.25098 0.439216 0.576471 rg
347.34 230.34 m 303.508 230.34 l 302.125 230.34 301 229.215 301 227.832
 c 301 207.109 l 301 205.723 302.125 204.602 303.508 204.602 c 347.34 204.602
 l 348.727 204.602 349.848 205.723 349.848 207.109 c 349.848 227.832 l 349.848
 229.215 348.727 230.34 347.34 230.34 c h
347.34 230.34 m f
0.211765 0.368627 0.490196 rg
347.348 204.602 m 342.598 204.602 l 342.598 220.59 l 342.598 221.969 341.48
 223.09 340.098 223.09 c 301 223.09 l 301 227.836 l 301 229.219 302.121 
230.336 303.5 230.336 c 347.348 230.336 l 348.73 230.336 349.848 229.219
 349.848 227.836 c 349.848 207.102 l 349.848 205.719 348.73 204.602 347.348
 204.602 c h
347.348 204.602 m f
Q Q
showpage
%%Trailer
end
%%EOF
